{
    "name": "NewsLetter",
    "alias": "newsletter",
    "description": "",
    "keywords": [],
    "order": 0,
    "providers": [
        "Modules\\NewsLetter\\Providers\\NewsLetterServiceProvider"
    ],
    "aliases": {},
    "files": [],
    "requires": []
}
